AWSTATS DATA FILE 7.1 (build 1.983)
# If you remove this file, all statistics for date 201611 will be lost/reset.
# Last config file used to build this data file was /etc/awstats/awstats.viasat_masters.lemon.ua.conf.

# Position (offset in bytes) in this file for beginning of each section for
# direct I/O access. If you made changes somewhere in this file, you should
# also remove completely the MAP section (AWStats will rewrite it at next
# update).
BEGIN_MAP 27
POS_GENERAL 2003                
POS_TIME 2689                
POS_VISITOR 44230               
POS_DAY 45513               
POS_DOMAIN 3519                
POS_LOGIN 3756                
POS_ROBOT 3911                
POS_WORMS 4182                
POS_EMAILSENDER 4313                
POS_EMAILRECEIVER 4456                
POS_SESSION 45968               
POS_SIDER 46177               
POS_FILETYPES 4591                
POS_DOWNLOADS 4956                
POS_OS 6061                
POS_BROWSER 6284                
POS_SCREENSIZE 6801                
POS_UNKNOWNREFERER 6875                
POS_UNKNOWNREFERERBROWSER 7094                
POS_ORIGIN 7291                
POS_SEREFERRALS 7440                
POS_PAGEREFS 7595                
POS_SEARCHWORDS 36797               
POS_KEYWORDS 36949               
POS_MISC 2351                
POS_ERRORS 37008               
POS_CLUSTER 3612                
POS_SIDER_404 37182               
END_MAP

# LastLine    = Date of last record processed - Last record line number in last log - Last record offset in last log - Last record signature value
# FirstTime   = Date of first visit for history file
# LastTime    = Date of last visit for history file
# LastUpdate  = Date of last update - Nb of parsed records - Nb of parsed old records - Nb of parsed new records - Nb of parsed corrupted - Nb of parsed dropped
# TotalVisits = Number of visits
# TotalUnique = Number of unique visitors
# MonthHostsKnown   = Number of hosts known
# MonthHostsUnKnown = Number of hosts unknown
BEGIN_GENERAL 8
LastLine 20161123180646 2515 704493 16607309799829
FirstTime 20161110030047
LastTime 20161123180646
LastUpdate 20161123180712 839 0 839 0 0
TotalVisits 107                 
TotalUnique 27                  
MonthHostsKnown 0                   
MonthHostsUnknown 27                  
END_GENERAL

# Misc ID - Pages - Hits - Bandwidth
BEGIN_MISC 10
QuickTimeSupport 0 0 0
JavaEnabled 0 0 0
JavascriptDisabled 0 0 0
PDFSupport 0 0 0
WindowsMediaPlayerSupport 0 0 0
AddToFavourites 0 157 0
RealPlayerSupport 0 0 0
TotalMisc 0 0 0
DirectorSupport 0 0 0
FlashSupport 0 0 0
END_MISC

# Hour - Pages - Hits - Bandwidth - Not viewed Pages - Not viewed Hits - Not viewed Bandwidth
BEGIN_TIME 24
0 98 862 71435055 2 3 1150
1 150 733 58744612 2 16 194402
2 141 790 68285211 6 10 28711
3 1 1 6631 0 1 1150
4 0 0 0 0 0 0
5 0 0 0 0 4 108
6 0 0 0 0 1 27
7 11 32 986255 15 17 4898
8 56 97 3752114 9 11 719
9 1588 1991 44383282 114 230 43089
10 883 1598 91764637 86 150 7324191
11 1131 1744 70767033 147 258 167046
12 642 1611 73673399 61 114 316256
13 1292 2336 102669097 87 234 161560
14 947 2072 86528657 89 169 88355
15 1314 2666 108665161 173 350 337175
16 2202 3777 145072740 178 365 554237
17 2339 4201 170250794 153 353 107040
18 862 2013 92716715 42 100 37918
19 131 731 46165628 14 60 62036
20 20 86 2770718 10 19 58157
21 6 25 8031196 0 2 1177
22 13 95 6482633 1 1 0
23 80 682 56657942 0 4 1231
END_TIME

# Domain - Pages - Hits - Bandwidth
# The 10 first Pages must be first (order not required for others)
BEGIN_DOMAIN 1
ip 13907 28143 1297261838
END_DOMAIN

# Cluster ID - Pages - Hits - Bandwidth
BEGIN_CLUSTER 0
END_CLUSTER

# Login - Pages - Hits - Bandwidth - Last visit
# The 10 first Pages must be first (order not required for others)
BEGIN_LOGIN 0
END_LOGIN

# Robot ID - Hits - Bandwidth - Last visit - Hits on robots.txt
# The 10 first Hits must be first (order not required for others)
BEGIN_ROBOT 4
no_user_agent 42 7650523 20161117103744 0
ia_archiver 22 594 20161123082447 22
yandex 5 135 20161117100241 5
unknown 2 54 20161117100105 2
END_ROBOT

# Worm ID - Hits - Bandwidth - Last visit
# The 5 first Hits must be first (order not required for others)
BEGIN_WORMS 0
END_WORMS

# EMail - Hits - Bandwidth - Last visit
# The 20 first Hits must be first (order not required for others)
BEGIN_EMAILSENDER 0
END_EMAILSENDER

# EMail - Hits - Bandwidth - Last visit
# The 20 first hits must be first (order not required for others)
BEGIN_EMAILRECEIVER 0
END_EMAILRECEIVER

# Files type - Hits - Bandwidth - Bandwidth without compression - Bandwidth after compression
BEGIN_FILETYPES 15
css 4742 204005751 0 0
png 4914 28187389 0 0
ttf 986 402965056 0 0
ico 224 1401486 0 0
pdf 63 61200900 0 0
txt 1 6409 0 0
woff 15 653020 0 0
php 1981 153814810 0 0
html 235 1944792 0 0
xml 1 5191 0 0
jpg 848 195833975 0 0
js 3410 64042845 0 0
Unknown 10689 183181362 0 0
gif 29 18852 0 0
wav 5 0 0 0
END_FILETYPES

# Downloads - Hits - Bandwidth
BEGIN_DOWNLOADS 18
/uploads/Orton4100c_021116.pdf 24 27 27324367
//uploads/file_15_11.csv 13 0 7296432
/uploads/9T_OB_S4HD.pdf 7 6 14158704
/ua/sounds/rm.wav 5 0 0
/uploads/5T_GI_HDMicroPlus.pdf 4 0 4127992
/ua/uploads/9T_%D0%9D%D0%B0%D0%BB%D0%B0%D1%88%D1%82%D1%83%D0%B2%D0%B0%D0%BD%D0%BD%D1%8F_%D1%82%D1%8E%D0%BD%D0%B5%D1%80%D0%B0_OB_S4HD.pdf 4 0 0
/ua/uploads/7T_%D0%9E%D0%92_S3_mini_HD.pdf 3 0 0
/uploads/7T_S3_mini_HD.pdf 3 0 3138882
/uploads/8T_OB_SX4_Base.pdf 3 3 5192396
/uploads/3T_Eurosky_DVB_3023_SUPER.pdf 2 0 2962222
/uploads/6T_GI_Matrix_Lite.pdf 2 0 1995058
/ua/uploads/7T_%D0%9E%D0%92S3_mini_HD.pdf 1 0 0
/ua/uploads/7T_S3_mini_HD.pdf 1 0 0
/ua/robot.txt 1 0 6409
/ua/uploads/6T_%D0%9D%D0%B0%D0%BB%D0%B0%D1%88%D1%82%D1%83%D0%B2%D0%B0%D0%BD%D0%BD%D1%8F_%D1%82%D1%8E%D0%BD%D0%B5%D1%80%D0%B0_GI_Matrix_Lite.pdf 1 0 0
/uploads/4T_ORTON_9500_HD.pdf 1 0 1307124
/ua/uploads/7T_%D0%9D%D0%B0%D0%BB%D0%B0%D1%88%D1%82%D1%83%D0%B2%D0%B0%D0%BD%D0%BD%D1%8F%20%D1%82%D1%8E%D0%BD%D0%B5%D1%80%D0%B0%20%D0%9E%D0%92%20S3%20mini%20HD.pdf 1 0 0
/uploads/2T_OB_X600.pdf 1 0 994155
END_DOWNLOADS

# OS ID - Hits
BEGIN_OS ID - Hits - Pages 10
linuxandroid 1371 203
winxp 14 4
winnt 15834 5373
linuxubuntu 119 86
winvista 693 182
win7 9797 7929
macosx 144 73
winunknown 1 1
macosx9 202 53
Unknown 4 3
END_OS

# Browser ID - Hits - Pages
BEGIN_BROWSER 21
firefox50.0 59 6
chrome53.0.2785.143 119 86
safari10.0 144 73
chrome54.0.2840.99 5914 2692
firefox49.0 2864 1912
chrome51.0.2704.79 33 8
opera9.80 19 1
firefox45.0 5662 5069
msie8.0 286 126
chrome46.0.2490.76 1236 150
chrome54.0.2840.71 10864 3359
chrome54.0.2840.87 180 48
mozilla 219 104
netscape5.0 5 5
chrome53.0.2785.124 50 32
chrome42.0.2311.135 167 123
chrome54.0.2840.68 33 10
chrome54.0.2840.85 52 11
Unknown 3 2
chrome54.0.2840.59 68 37
safari9.1.3 202 53
END_BROWSER

# Screen size - Hits
BEGIN_SCREENSIZE 0
END_SCREENSIZE

# Unknown referer OS - Last visit date
BEGIN_UNKNOWNREFERER 2
Jeffrey's_Exif_Viewer_(http://regex.info/exif) 20161115151804
Mozilla/5.0_(compatible;_Google-Site-Verification/1.0) 20161117100159
END_UNKNOWNREFERER

# Unknown referer Browser - Last visit date
BEGIN_UNKNOWNREFERERBROWSER 2
Microsoft_Windows_Network_Diagnostics 20161121142905
Jeffrey's_Exif_Viewer_(http://regex.info/exif) 20161115151804
END_UNKNOWNREFERERBROWSER

# Origin - Pages - Hits 
BEGIN_ORIGIN 6
From0 1673 1691
From1 0 0
From2 2 2
From3 9951 21356
From4 2281 5130
From5 0 0
END_ORIGIN

# Search engine referers ID - Pages - Hits
BEGIN_SEREFERRALS 1
yandex 2 2
END_SEREFERRALS

# External page referers - Pages - Hits
# The 10 first Pages must be first (order not required for others)
BEGIN_PAGEREFS 491
http://viasatmasters.lemon.ua/ua/calling 5526 6031
http://viasatmasters.lemon.ua/ru/calling 840 1033
http://viasatmasters.lemon.ua/assets/css/style.css 735 4344
http://viasatmasters.lemon.ua/phpmyadmin/sql.php 365 392
http://viasatmasters.lemon.ua/phpmyadmin/index.php 297 308
http://viasatmasters.lemon.ua/ua 247 522
http://viasatmasters.lemon.ua/ua/ 142 833
http://viasatmasters.lemon.ua/ua/instructions 141 199
http://viasatmasters.lemon.ua/ua/registration/update 93 93
http://viasatmasters.lemon.ua/ua/calling/master/12 90 2552
http://viasatmasters.lemon.ua/ua/calling/master/368 0 1
http://viasatmasters.lemon.ua/ua/calling/master/76 0 1
http://viasatmasters.lemon.ua/ua/calling/master/396 0 1
http://viasatmasters.lemon.ua/ua/calling/region/0523000000 5 5
http://viasatmasters.lemon.ua/ua/calling/region/6323300000 1 1
http://viasatmasters.lemon.ua/ua/calling/region/1211900000 2 2
http://viasatmasters.lemon.ua/ua/calling/master/58 2 3
http://viasatmasters.lemon.ua/ru/instructions 16 21
http://viasatmasters.lemon.ua/ua/calling/master/392 1 2
http://viasatmasters.lemon.ua/ua/calling/master/364 0 1
http://viasatmasters.lemon.ua/ua/calling/master/90 1 2
http://viasatmasters.lemon.ua/ua/calling/master/151 1 2
http://viasatmasters.lemon.ua/ua/calling/region/3525800000 3 3
http://viasatmasters.lemon.ua/ua/calling/master/95 1 4
http://viasatmasters.lemon.ua/ua/calling/master/135 1 2
http://viasatmasters.lemon.ua/ua/calling/region/4622700000 3 3
http://viasatmasters.lemon.ua/ua/calling/region/2310700000 7 11
http://viasatmasters.lemon.ua/ua/calling/master/666735 1 1
http://viasatmasters.lemon.ua/ua/calling/master/30 0 2
http://viasatmasters.lemon.ua/ua/calling/region/4610900000 1 1
http://viasatmasters.lemon.ua/ru 38 117
http://viasatmasters.lemon.ua/ua/calling/master/113 0 2
http://viasatmasters.lemon.ua/ua/calling/master/11 2 2
http://viasatmasters.lemon.ua/ua/calling/region/7310100000 3 5
http://viasatmasters.lemon.ua/ua/calling/region/1421700000 1 1
http://viasatmasters.lemon.ua/ru/calling/master/89 0 1
http://viasatmasters.lemon.ua/ua/calling/master/93 0 3
http://viasatmasters.lemon.ua/ua/calling/region/6320400000 1 1
http://viasatmasters.lemon.ua/ua/panel/pages/edit/page/2 5 125
http://viasatmasters.lemon.ua/ua/calling/master/185 1 1
http://viasatmasters.lemon.ua/ua/calling/master/73 1 1
http://viasatmasters.lemon.ua/ua/calling/region/5922300000 2 3
http://viasatmasters.lemon.ua/ua/calling/master/386 1 4
http://viasatmasters.lemon.ua/ua/calling/region/5925600000 1 1
http://viasatmasters.lemon.ua/ua/calling/region/6820300000 2 2
http://viasatmasters.lemon.ua/phpmyadmin/phpmyadmin.css.php 0 14
http://viasatmasters.lemon.ua/ua/calling/region/6320800000 1 1
http://viasatmasters.lemon.ua/ua/calling/master/168 0 2
http://viasatmasters.lemon.ua/ua/calling/region/6824400000 3 3
http://viasatmasters.lemon.ua/ua/calling/master/373 1 1
http://viasatmasters.lemon.ua/ru/calling/master/666745 2 2
http://viasatmasters.lemon.ua/ua/calling/region/6323500000 5 5
http://viasatmasters.lemon.ua/ua/calling/region/4410100000 5 7
http://viasatmasters.lemon.ua/ua/calling/region/5324800000 1 2
http://viasatmasters.lemon.ua/ua/calling/region/4610100000 4 4
http://viasatmasters.lemon.ua/ua/calling/master/153 0 1
http://viasatmasters.lemon.ua/ua/calling/master/165 0 1
http://viasatmasters.lemon.ua/ua/calling/region/5623800000 2 2
http://viasatmasters.lemon.ua/ua/calling/master/51 0 1
http://viasatmasters.lemon.ua/ua/calling/master/47 1 1
http://viasatmasters.lemon.ua/ua/calling/region/5924100000 2 2
http://viasatmasters.lemon.ua/ua/calling/master/5 1 2
http://viasatmasters.lemon.ua/ua/calling/region/4425400000 2 2
http://viasatmasters.lemon.ua/ua/calling/region/5911000000 5 5
http://viasatmasters.lemon.ua/ua/calling/region/2321200000 1 1
http://viasatmasters.lemon.ua/ua/calling/master/40 0 1
http://viasatmasters.lemon.ua/ua/calling/master/162 1 2
http://viasatmasters.lemon.ua/ua/calling/region/6524400000 1 1
http://viasatmasters.lemon.ua/ua/calling/region/1223200000 2 3
http://viasatmasters.lemon.ua/ua/calling/region/0510100000 10 11
http://viasatmasters.lemon.ua/ua/calling/region/3524000000 6 6
http://viasatmasters.lemon.ua/ua/panel/pages/edit/page/1 17 49
http://viasatmasters.lemon.ua/ua/calling/region/7423800000 1 1
http://viasatmasters.lemon.ua/ua/calling/master/9 0 1
http://viasatmasters.lemon.ua/ua/calling/master/136 0 1
http://viasatmasters.lemon.ua/ua/calling/region/5110100000 3 3
http://viasatmasters.lemon.ua/ua/panel/pages/edit/page/6 0 1
http://viasatmasters.lemon.ua/ua/calling/master/393 1 2
http://viasatmasters.lemon.ua/ua/calling/master/370 1 1
http://viasatmasters.lemon.ua/ua/calling/region/6822700000 1 1
http://viasatmasters.lemon.ua/ua/calling/master/379 1 1
http://viasatmasters.lemon.ua/ua/calling/master/159 1 2
http://viasatmasters.lemon.ua/ua/calling/master/52 0 1
http://viasatmasters.lemon.ua/ua/calling/region/5321300000 6 6
http://viasatmasters.lemon.ua/ua/calling/region/3220400000 3 4
http://viasatmasters.lemon.ua/ua/calling/master/101 1 2
http://viasatmasters.lemon.ua/ua/calling/region/7124300000 1 2
http://viasatmasters.lemon.ua/ua/calling/region/8000000000 52 148
http://viasatmasters.lemon.ua/ua/calling/master/666751 0 1
http://viasatmasters.lemon.ua/ua/calling/region/4821700000 1 6
http://viasatmasters.lemon.ua/ua/calling/region/3224400000 3 8
http://viasatmasters.lemon.ua/ua/calling/region/6125000000 4 4
http://viasatmasters.lemon.ua/ua/calling/master/666740 1 1
http://viasatmasters.lemon.ua/ua/calling/master/176 1 3
http://viasatmasters.lemon.ua/ua/calling/region/5324000000 3 4
http://viasatmasters.lemon.ua/ua/calling/region/3222400000 5 11
http://viasatmasters.lemon.ua/ua/calling/region/3223100000 4 20
http://viasatmasters.lemon.ua/ua/calling/region/1412900000 4 8
http://viasatmasters.lemon.ua/ua/calling/master/112 0 1
http://viasatmasters.lemon.ua/ua/calling/region/1822500000 1 1
http://viasatmasters.lemon.ua/ru/faq 16 160
http://viasatmasters.lemon.ua/ua/calling/master/65 0 1
http://viasatmasters.lemon.ua/ua/calling/region/3210600000 3 3
http://viasatmasters.lemon.ua/ua/calling/region/1222900000 1 1
http://viasatmasters.lemon.ua/ua/calling/region/6320200000 2 2
http://viasatmasters.lemon.ua/ua/calling/region/3221800000 7 7
http://viasatmasters.lemon.ua/ua/calling/master/102 0 1
http://viasatmasters.lemon.ua/ua/calling/region/6522600000 1 2
http://viasatmasters.lemon.ua/ua/calling/region/4420600000 1 1
http://viasatmasters.lemon.ua/ua/calling/region/4424000000 4 5
http://viasatmasters.lemon.ua/ua/calling/region/1823400000 2 3
http://viasatmasters.lemon.ua/ua/calling/master/85 0 1
http://viasatmasters.lemon.ua/ua/calling/region/7421100000 5 5
http://viasatmasters.lemon.ua/ua/calling/region/4624800000 5 6
http://viasatmasters.lemon.ua/ua/calling/region/2324200000 1 1
http://viasatmasters.lemon.ua/ua/calling/region/5121200000 1 1
http://viasatmasters.lemon.ua/ua/calling/region/4624500000 1 2
http://viasatmasters.lemon.ua/ua/calling/master/39 1 2
http://viasatmasters.lemon.ua/ua/calling/region/2323900000 1 2
http://viasatmasters.lemon.ua/ua/calling/region/5320400000 1 2
http://m.vk.com/away.php 1 1
http://viasatmasters.lemon.ua/ua/calling/master/194 7 11
http://viasatmasters.lemon.ua/ua/calling/region/4610600000 2 2
http://viasatmasters.lemon.ua/ua/calling/region/5910100000 4 5
http://viasatmasters.lemon.ua/ua/calling/region/2620400000 4 8
http://viasatmasters.lemon.ua/ua/calling/master/60 1 1
http://viasatmasters.lemon.ua/ua/calling/master/164 1 2
http://viasatmasters.lemon.ua/ru/polices 2 2
http://viasatmasters.lemon.ua/ua/calling/master/142 2 3
http://viasatmasters.lemon.ua/ua/calling/region/7123700000 2 3
http://viasatmasters.lemon.ua/ua/calling/region/3522800000 1 1
http://viasatmasters.lemon.ua/ua/calling/master/666755 2 3
http://viasatmasters.lemon.ua/ua/calling/master/122 0 1
http://viasatmasters.lemon.ua/ua/calling/master/125 0 3
http://viasatmasters.lemon.ua/ua/calling/region/4424500000 1 2
http://viasatmasters.lemon.ua/ua/calling/master/66 1 2
http://viasatmasters.lemon.ua/ua/calling/region/5625400000 1 1
http://viasatmasters.lemon.ua/ua/rules 13 15
http://viasatmasters.lemon.ua/ua/calling/region/6822100000 3 3
http://viasatmasters.lemon.ua/ua/calling/region/7422000000 1 1
http://viasatmasters.lemon.ua/ua/calling/region/4822300000 1 1
http://viasatmasters.lemon.ua/ua/calling/region/2310400000 5 6
http://viasatmasters.lemon.ua/ua/calling/master/134 0 1
http://viasatmasters.lemon.ua/ua/calling/master/166 1 1
http://viasatmasters.lemon.ua/ua/calling/master/29 1 2
http://viasatmasters.lemon.ua/ua/calling/master/19 3 5
http://viasatmasters.lemon.ua/ua/calling/master/158 10 27
http://viasatmasters.lemon.ua/ua/calling/master/363 1 2
http://viasatmasters.lemon.ua/ua/calling/region/2610100000 2 3
http://viasatmasters.lemon.ua/ua/registration/up 32 50
http://viasatmasters.lemon.ua/ua/calling/region/5910400000 2 2
http://viasatmasters.lemon.ua/ua/calling/master/391 1 2
http://viasatmasters.lemon.ua/ua/calling/master/666754 1 1
http://viasatmasters.lemon.ua/ua/calling/region/2323600000 1 7
http://viasatmasters.lemon.ua/ua/calling/master/70 1 1
http://viasatmasters.lemon.ua/ua/calling/master/172 1 2
http://viasatmasters.lemon.ua/ua/calling/master/144 0 1
http://viasatmasters.lemon.ua/ua/calling/master/387 0 1
http://viasatmasters.lemon.ua/ua/about/hello 5 170
http://viasatmasters.lemon.ua/ua/calling/region/3224200000 1 1
http://viasatmasters.lemon.ua/ua/calling/region/6520600000 4 5
http://viasatmasters.lemon.ua/ua/calling/master/31 0 1
http://viasatmasters.lemon.ua/ua/calling/master/395 0 1
http://viasatmasters.lemon.ua/ua/calling/master/146 0 1
http://viasatmasters.lemon.ua/ua/calling/region/2324900000 1 1
http://viasatmasters.lemon.ua/ua/calling/master/77 2 2
http://viasatmasters.lemon.ua/ua/calling/master/316 0 1
http://viasatmasters.lemon.ua/ua/calling/master/666732 1 1
http://viasatmasters.lemon.ua/ua/calling/master/154 0 1
http://viasatmasters.lemon.ua/ua/calling/region/2110100000 5 7
http://viasatmasters.lemon.ua/ua/calling/region/3210900000 1 1
http://viasatmasters.lemon.ua/ua/calling/master/110 0 1
http://viasatmasters.lemon.ua/ua/calling/master/92 1 2
http://viasatmasters.lemon.ua/ua/calling/master/161 0 1
http://viasatmasters.lemon.ua/ua/calling/region/0721800000 4 5
http://viasatmasters.lemon.ua/ua/calling/master/43 0 1
http://viasatmasters.lemon.ua/ua/calling/master/385 0 1
http://viasatmasters.lemon.ua/ua/calling/master/64 0 1
http://viasatmasters.lemon.ua/ua/calling/master/36 1 1
http://viasatmasters.lemon.ua/ua/calling/region/1412300000 5 10
http://viasatmasters.lemon.ua/ua/calling/master/150 0 1
http://viasatmasters.lemon.ua/ua/calling/master/374 0 1
http://viasatmasters.lemon.ua/ua/calling/region/4423300000 1 2
http://viasatmasters.lemon.ua/ua/calling/master/16 1 1
http://viasatmasters.lemon.ua/ua/calling/master/181 2 3
http://viasatmasters.lemon.ua/ua/calling/master/10 1 3
http://viasatmasters.lemon.ua/assets/css/login.css 0 10
http://viasatmasters.lemon.ua/ua/calling/region/6110100000 9 9
http://viasatmasters.lemon.ua/ua/calling/master/78 0 1
http://viasatmasters.lemon.ua/ua/calling/region/4622400000 1 2
http://viasatmasters.lemon.ua/ua/calling/master/375 0 1
http://viasatmasters.lemon.ua/ua/calling/master/89 0 1
http://viasatmasters.lemon.ua/ua/calling/master/126 1 1
http://viasatmasters.lemon.ua/ua/calling/region/3510600000 1 1
http://viasatmasters.lemon.ua/ua/calling/master/666761 1 13
http://viasatmasters.lemon.ua/ua/calling/region/2610400000 1 1
http://viasatmasters.lemon.ua/ua/panel/pages/page 11 37
http://viasatmasters.lemon.ua/ua/calling/master/666758 0 1
http://viasatmasters.lemon.ua/ua/calling/region/0725500000 1 2
http://viasatmasters.lemon.ua/ua/calling/region/4824200000 1 2
http://viasatmasters.lemon.ua/ua/calling/region/6521200000 3 4
http://viasatmasters.lemon.ua/ua/calling/region/6510100000 5 10
http://viasatmasters.lemon.ua/ua/calling/region/2322100000 1 1
http://viasatmasters.lemon.ua/ua/calling/region/3520500000 1 1
http://viasatmasters.lemon.ua/ua/calling/master/398 0 1
http://viasatmasters.lemon.ua/ua/calling/master/203 0 1
http://viasatmasters.lemon.ua/ua/calling/region/1820900000 2 3
http://viasatmasters.lemon.ua/ua/calling/master/362 0 1
http://viasatmasters.lemon.ua/ua/calling/master/188 0 2
http://viasatmasters.lemon.ua/ua/calling/master/380 0 1
http://viasatmasters.lemon.ua/ua/calling/master/69 1 2
http://viasatmasters.lemon.ua/ua/calling/master/160 0 1
http://viasatmasters.lemon.ua/ua/calling/region/4621200000 1 2
http://viasatmasters.lemon.ua/ua/calling/master/32 1 1
http://viasatmasters.lemon.ua/ua/calling/master/666736 1 1
http://viasatmasters.lemon.ua/ua/panel/comments/comment 16 21
http://viasatmasters.lemon.ua/ua/calling/region/6325700000 0 6
http://viasatmasters.lemon.ua/ua/calling/region/1210100000 3 10
http://viasatmasters.lemon.ua/ua/calling/region/5323600000 2 2
http://viasatmasters.lemon.ua/ua/calling/region/3222000000 3 4
http://viasatmasters.lemon.ua/ua/calling/region/2624400000 1 1
http://viasatmasters.lemon.ua/ua/calling/region/7110800000 1 1
http://viasatmasters.lemon.ua/ua/calling/master/184 0 1
http://viasatmasters.lemon.ua/ua/calling/region/2624000000 5 10
http://viasatmasters.lemon.ua/phpmyadmin/tbl_sql.php 27 27
http://viasatmasters.lemon.ua/ua/calling/master/106 1 1
http://viasatmasters.lemon.ua/ua/calling/region/6810800000 2 2
http://viasatmasters.lemon.ua/ua/calling/master/103 1 1
http://viasatmasters.lemon.ua/ua/calling/master/175 0 1
http://viasatmasters.lemon.ua/ua/calling/region/7420600000 4 5
http://viasatmasters.lemon.ua/ua/calling/region/0722800000 6 7
http://viasatmasters.lemon.ua/ua/calling/region/1423900000 2 3
http://viasatmasters.lemon.ua/ua/calling/master/141 0 1
http://viasatmasters.lemon.ua/ua/calling/master/131 1 2
http://viasatmasters.lemon.ua/ua/calling/region/1414700000 1 3
http://viasatmasters.lemon.ua/ua/calling/master/189 1 2
http://viasatmasters.lemon.ua/ua/calling/master/138 1 1
http://viasatmasters.lemon.ua/ua/panel/auth/login 7 15
http://viasatmasters.lemon.ua/ua/calling/master/117 0 3
http://viasatmasters.lemon.ua/ua/calling/region/0710100000 4 6
http://viasatmasters.lemon.ua/ua/calling/region/0520200000 9 11
http://viasatmasters.lemon.ua/ua/calling/region/0123500000 1 1
http://viasatmasters.lemon.ua/ua/calling/region/5122300000 1 1
http://viasatmasters.lemon.ua/ua/calling/master/169 0 1
http://viasatmasters.lemon.ua/ua/calling/master/666733 1 1
http://viasatmasters.lemon.ua/ua/calling/master/21 1 2
http://viasatmasters.lemon.ua/ua/calling/master/666745 3 4
http://viasatmasters.lemon.ua/ua/calling/master/139 1 2
http://viasatmasters.lemon.ua/ua/calling/master/191 0 1
http://viasatmasters.lemon.ua/ua/calling/region/0721100000 0 1
http://viasatmasters.lemon.ua/ua/calling/region/6522300000 2 5
http://viasatmasters.lemon.ua/phpmyadmin/tbl_change.php 39 42
http://viasatmasters.lemon.ua/ua/panel/comments/comment/ 5 10
http://viasatmasters.lemon.ua/ua/calling/master/377 0 1
http://viasatmasters.lemon.ua/ua/calling/region/3525500000 2 2
http://viasatmasters.lemon.ua/ua/calling/master/18 0 1
http://viasatmasters.lemon.ua/ua/calling/master/666753 0 1
http://viasatmasters.lemon.ua/ua/calling/region/1810900000 1 1
http://viasatmasters.lemon.ua/ua/calling/region/0520600000 1 1
http://viasatmasters.lemon.ua/ua/calling/region/4620300000 4 5
http://viasatmasters.lemon.ua/ua/calling/region/2320300000 2 3
http://viasatmasters.lemon.ua/ua/calling/region/4624200000 1 1
http://viasatmasters.lemon.ua/ua/calling/region/0522400000 1 2
http://viasatmasters.lemon.ua/ua/calling/master/116 1 1
http://viasatmasters.lemon.ua/ua/calling/region/6825800000 2 3
http://viasatmasters.lemon.ua/ua/calling/region/5910300000 1 1
http://viasatmasters.lemon.ua/ua/calling/region/0522800000 4 5
http://viasatmasters.lemon.ua/ua/calling/region/5320600000 2 2
http://viasatmasters.lemon.ua/ua/calling/region/2320600000 3 3
http://viasatmasters.lemon.ua/ua/calling/region/7121500000 1 2
http://viasatmasters.lemon.ua/ua/calling/master/42 2 3
http://viasatmasters.lemon.ua/ua/calling/region/4421600000 2 2
http://viasatmasters.lemon.ua/ua/calling/region/1423300000 1 1
http://viasatmasters.lemon.ua/ua/calling/region/4820900000 3 3
http://viasatmasters.lemon.ua/phpmyadmin/themes/pmahomme/jquery/jquery-ui-1.9.2.custom.css 0 14
http://viasatmasters.lemon.ua/ua/calling/region/5925000000 3 6
http://viasatmasters.lemon.ua/ua/calling/region/1810100000 5 5
http://viasatmasters.lemon.ua/ua/calling/region/1410100000 9 13
http://viasatmasters.lemon.ua/ua/calling/master/53 1 1
http://viasatmasters.lemon.ua/ua/calling/master/401 0 3
http://viasatmasters.lemon.ua/ua/calling/master/171 1 2
http://viasatmasters.lemon.ua/ua/calling/region/1415300000 3 3
http://viasatmasters.lemon.ua/ru/calling/master/9 1 3
http://viasatmasters.lemon.ua/ua/panel 11 80
http://viasatmasters.lemon.ua/ua/calling/master/56 0 1
http://viasatmasters.lemon.ua/ua/calling/master/37 0 1
http://viasatmasters.lemon.ua/ua/calling/master/192 1 1
http://viasatmasters.lemon.ua/ua/calling/region/0521400000 2 2
http://viasatmasters.lemon.ua/ua/calling/master/163 0 1
http://viasatmasters.lemon.ua/ua/calling/region/1811000000 1 3
http://viasatmasters.lemon.ua/ua/calling/region/1424200000 1 2
http://viasatmasters.lemon.ua/ua/calling/region/2124400000 3 4
http://viasatmasters.lemon.ua/ua/calling/master/7 1 2
http://viasatmasters.lemon.ua/ua/calling/region/1422400000 1 1
http://viasatmasters.lemon.ua/ua/calling/master/98 7 7
http://viasatmasters.lemon.ua/ua/calling/region/2324800000 5 5
http://viasatmasters.lemon.ua/ua/calling/region/4623900000 1 4
http://viasatmasters.lemon.ua/ua/calling/region/1224500000 1 1
http://viasatmasters.lemon.ua/ua/calling/region/2625200000 1 2
http://viasatmasters.lemon.ua/ua/test 0 20
http://viasatmasters.lemon.ua/ru/about 6 30
http://viasatmasters.lemon.ua/ua/calling/region/2124800000 3 3
http://viasatmasters.lemon.ua/ua/calling/master/397 0 1
http://viasatmasters.lemon.ua/ua/calling/region/6524700000 1 1
http://viasatmasters.lemon.ua/ua/calling/region/4412500000 1 2
http://viasatmasters.lemon.ua/ua/calling/region/3221400000 1 1
http://viasatmasters.lemon.ua/ua/calling/region/1211600000 1 1
http://viasatmasters.lemon.ua/ua/calling/region/5310700000 1 1
http://viasatmasters.lemon.ua/ua/calling/region/2623600000 7 12
http://viasatmasters.lemon.ua/ua/calling/master/17 0 2
http://viasatmasters.lemon.ua/ua/calling/master/182 1 2
http://viasatmasters.lemon.ua/ua/calling/region/4810100000 5 6
http://viasatmasters.lemon.ua/ua/calling/region/5922000000 1 2
http://viasatmasters.lemon.ua/ua/calling/master/3 5 177
http://viasatmasters.lemon.ua/ua/calling/region/3510900000 2 6
http://viasatmasters.lemon.ua/ua/calling/region/7123100000 1 12
http://viasatmasters.lemon.ua/ua/calling/region/5621800000 1 1
http://viasatmasters.lemon.ua/ua/calling/region/0710700000 2 2
http://viasatmasters.lemon.ua/ua/calling/region/5920600000 1 1
http://viasatmasters.lemon.ua/ua/calling/master/62 0 1
http://viasatmasters.lemon.ua/ua/calling/region/1425200000 2 2
http://viasatmasters.lemon.ua/ua/instructions/model/1 2 2
http://viasatmasters.lemon.ua/ua/calling/master/133 3 4
http://viasatmasters.lemon.ua/ua/calling/master/666743 1 1
http://viasatmasters.lemon.ua/ua/calling/master/173 0 1
http://viasatmasters.lemon.ua/ua/calling/master/361 1 2
http://viasatmasters.lemon.ua/ua/calling/region/5625000000 7 8
http://viasatmasters.lemon.ua/ua/calling/region/7410100000 1 2
http://viasatmasters.lemon.ua/ua/calling/master/372 1 1
http://viasatmasters.lemon.ua/uploads/9T_OB_S4HD.pdf 0 1
http://viasatmasters.lemon.ua/ua/calling/master/666757 0 1
http://viasatmasters.lemon.ua/ua/calling/region/2322700000 2 3
http://viasatmasters.lemon.ua/ua/calling/region/7423300000 1 1
http://viasatmasters.lemon.ua/ua/calling/master/152 0 1
http://viasatmasters.lemon.ua/ua/calling/master/179 1 2
http://viasatmasters.lemon.ua/ua/calling/region/1420300000 1 1
http://viasatmasters.lemon.ua/ua/calling/master/68 0 1
http://viasatmasters.lemon.ua/ua/calling/region/4825400000 1 6
http://viasatmasters.lemon.ua/ua/calling/master/148 0 1
http://viasatmasters.lemon.ua/ua/calling/master/120 2 2
http://viasatmasters.lemon.ua/ua/calling/master/33 1 1
http://viasatmasters.lemon.ua/ua/calling/master/50 1 1
http://viasatmasters.lemon.ua/ua/calling/region/4423800000 1 1
http://viasatmasters.lemon.ua/ua/calling/region/3225500000 2 3
http://viasatmasters.lemon.ua/ua/calling/master/180 0 1
http://viasatmasters.lemon.ua/ua/calling/region/2123600000 3 4
http://viasatmasters.lemon.ua/ua/calling/master/155 0 1
http://viasatmasters.lemon.ua/ua/calling/region/5610100000 3 3
http://viasatmasters.lemon.ua/ua/calling/region/6321200000 1 1
http://viasatmasters.lemon.ua/ua/calling/region/7322500000 1 2
http://viasatmasters.lemon.ua/ua/calling/region/5323800000 4 5
http://viasatmasters.lemon.ua/ua/calling/master/187 1 3
http://viasatmasters.lemon.ua/ua/calling/master/156 1 2
http://viasatmasters.lemon.ua/ua/calling/master/1 1 4
http://viasatmasters.lemon.ua/ru/registration 40 477
http://viasatmasters.lemon.ua/ua/calling/region/6825000000 1 2
http://viasatmasters.lemon.ua/ua/calling/region/1820300000 1 1
http://viasatmasters.lemon.ua/ua/calling/region/6321600000 3 3
http://viasatmasters.lemon.ua/ua/calling/region/6310100000 16 17
http://viasatmasters.lemon.ua/ua/calling/region/3510100000 5 8
http://viasatmasters.lemon.ua/ua/panel/menus/menu 1 2
http://viasatmasters.lemon.ua/ua/calling/region/3210500000 9 9
http://viasatmasters.lemon.ua/ua/calling/master/183 1 2
http://viasatmasters.lemon.ua/ru/calling/master/98 1 1
http://viasatmasters.lemon.ua/ua/calling/master/88 1 2
http://viasatmasters.lemon.ua/ua/calling/master/358 1 1
http://viasatmasters.lemon.ua/ua/calling/region/6124600000 1 1
http://viasatmasters.lemon.ua/ua/calling/master/71 2 3
http://viasatmasters.lemon.ua/ua/calling/master/263 1 1
http://viasatmasters.lemon.ua/ua/calling/master/170 1 1
http://viasatmasters.lemon.ua/ua/calling/region/3221200000 4 5
http://viasatmasters.lemon.ua/ua/calling/region/3224900000 6 13
http://viasatmasters.lemon.ua/ua/calling/master/666746 1 1
http://viasatmasters.lemon.ua/ua/calling/master/28 0 1
http://viasatmasters.lemon.ua/ua/calling/region/0520800000 8 9
http://viasatmasters.lemon.ua/ua/calling/region/6820600000 3 5
http://viasatmasters.lemon.ua/ua/calling/region/7410400000 2 2
http://viasatmasters.lemon.ua/ua/calling/region/1421500000 3 3
http://viasatmasters.lemon.ua/ua/calling/region/1823100000 10 10
http://viasatmasters.lemon.ua/ua/calling/master/4 0 3
http://viasatmasters.lemon.ua/ua/calling/region/4820600000 0 3
http://viasatmasters.lemon.ua/ua/calling/region/3210700000 1 1
http://viasatmasters.lemon.ua/ua/calling/region/0723600000 1 2
http://viasatmasters.lemon.ua/ua/calling/region/5925300000 1 1
http://viasatmasters.lemon.ua/ua/calling/region/1413800000 1 2
http://viasatmasters.lemon.ua/ua/calling/region/1211000000 4 6
http://viasatmasters.lemon.ua/ua/calling/master/389 0 3
http://viasatmasters.lemon.ua/ua/calling/region/4824500000 2 2
http://viasatmasters.lemon.ua/ua/calling/region/1225800000 1 2
http://viasatmasters.lemon.ua/ua/calling/region/6324200000 2 2
http://viasatmasters.lemon.ua/ua/calling/master/261 0 1
http://viasatmasters.lemon.ua/ua/faq 62 68
http://viasatmasters.lemon.ua/ua/calling/region/3523100000 1 2
http://viasatmasters.lemon.ua/ua/calling/master/27 2 4
http://viasatmasters.lemon.ua/phpmyadmin/tbl_structure.php 1 1
http://viasatmasters.lemon.ua/ua/calling/region/6810100000 7 9
http://viasatmasters.lemon.ua/ua/calling/region/6823600000 2 2
http://viasatmasters.lemon.ua/ua/calling/master/190 0 1
http://viasatmasters.lemon.ua/ua/calling/region/4621500000 3 3
http://viasatmasters.lemon.ua/ua/calling/region/6320600000 2 2
http://viasatmasters.lemon.ua/ua/calling/master/100 0 1
http://viasatmasters.lemon.ua/ua/calling/region/4623000000 3 5
http://viasatmasters.lemon.ua/ua/calling/master/94 1 2
http://viasatmasters.lemon.ua/ua/calling/master/83 0 1
http://viasatmasters.lemon.ua/ua/calling/region/1820600000 1 3
http://viasatmasters.lemon.ua/ua/calling/master/57 1 2
http://viasatmasters.lemon.ua/ua/calling/master/91 0 1
http://viasatmasters.lemon.ua/ua/calling/master/186 1 2
http://viasatmasters.lemon.ua/ua/polices 9 9
http://viasatmasters.lemon.ua/uploads/Orton4100c_021116.pdf 0 14
http://viasatmasters.lemon.ua/ua/calling/region/2122400000 1 1
http://viasatmasters.lemon.ua/ua/calling/region/7425100000 1 2
http://viasatmasters.lemon.ua/ua/calling/region/4821400000 1 2
http://viasatmasters.lemon.ua/ua/panel/media/filemanager 2 4
http://viasatmasters.lemon.ua/ua/calling/master/75 0 1
http://viasatmasters.lemon.ua/ua/calling/region/4625100000 1 2
http://viasatmasters.lemon.ua/ua/calling/master/48 1 2
http://viasatmasters.lemon.ua/ua/calling/master/383 1 5
http://viasatmasters.lemon.ua/ua/calling/master/54 1 5
http://viasatmasters.lemon.ua/ua/calling/region/3223700000 1 1
http://viasatmasters.lemon.ua/ua/calling/region/3210300000 5 5
http://viasatmasters.lemon.ua/ua/calling/master/115 0 2
http://viasatmasters.lemon.ua/ua/calling/region/5625800000 1 1
http://viasatmasters.lemon.ua/ua/calling/region/0710200000 2 3
http://viasatmasters.lemon.ua/phpmyadmin/ 59 71
http://viasatmasters.lemon.ua/ua/calling/master/382 0 1
http://viasatmasters.lemon.ua/ua/calling/region/4425100000 0 1
http://viasatmasters.lemon.ua/ua/calling/region/3211200000 5 26
http://viasatmasters.lemon.ua/ua/calling/region/1224800000 1 5
http://viasatmasters.lemon.ua/ua/calling/region/7120900000 6 16
http://viasatmasters.lemon.ua/ua/calling/region/2110400000 1 1
http://viasatmasters.lemon.ua/ua/calling/region/6121600000 1 2
http://viasatmasters.lemon.ua/ua/calling/master/99 0 1
http://viasatmasters.lemon.ua/ua/calling/region/7125100000 1 2
http://viasatmasters.lemon.ua/ua/calling/master/8 1 6
http://viasatmasters.lemon.ua/ua/calling/region/7124000000 2 3
http://viasatmasters.lemon.ua/phpmyadmin/tbl_row_action.php 66 66
http://viasatmasters.lemon.ua/ua/calling/region/2310100000 11 13
http://viasatmasters.lemon.ua/ua/calling/master/402 1 2
http://viasatmasters.lemon.ua/ua/calling/master/177 4 5
http://viasatmasters.lemon.ua/ua/calling/region/6322000000 2 2
http://viasatmasters.lemon.ua/ua/calling/master/666738 1 1
http://viasatmasters.lemon.ua/ua/calling/region/6824700000 1 1
http://viasatmasters.lemon.ua/ua/calling/master/366 0 1
http://viasatmasters.lemon.ua/ua/calling/region/7110100000 9 102
http://viasatmasters.lemon.ua/ua/calling/master/79 0 1
http://viasatmasters.lemon.ua/ua/calling/region/6821500000 0 2
http://viasatmasters.lemon.ua/ua/calling/region/5310100000 12 15
http://viasatmasters.lemon.ua/ua/calling/region/2125300000 4 4
http://viasatmasters.lemon.ua/ua/calling/region/1423000000 2 2
http://viasatmasters.lemon.ua/ua/calling/master/124 0 1
http://viasatmasters.lemon.ua/ua/calling/region/1221800000 4 7
http://viasatmasters.lemon.ua/ua/calling/master/44 1 1
http://viasatmasters.lemon.ua/ua/calling/master/26 1 2
http://viasatmasters.lemon.ua/ua/calling/master/49 0 1
http://viasatmasters.lemon.ua/ua/calling/region/1413500000 1 2
http://viasatmasters.lemon.ua/ua/calling/region/6820900000 4 4
http://viasatmasters.lemon.ua/ua/calling/region/5321000000 3 5
http://viasatmasters.lemon.ua/ua/calling/master/390 1 2
http://viasatmasters.lemon.ua/ua/calling/master/376 1 2
http://viasatmasters.lemon.ua/ua/calling/master/666712 0 2
http://viasatmasters.lemon.ua/ua/calling/master/666760 0 1
http://viasatmasters.lemon.ua/ua/calling/master/193 4 7
http://viasatmasters.lemon.ua/ua/calling/region/3220800000 3 11
http://viasatmasters.lemon.ua/ua/calling/master/137 0 1
http://viasatmasters.lemon.ua/ua/calling/master/178 2 3
http://viasatmasters.lemon.ua 2 2
http://viasatmasters.lemon.ua/ua/calling/master/666747 1 1
http://viasatmasters.lemon.ua/ua/calling/master/666737 1 1
http://viasatmasters.lemon.ua/ua/calling/region/6122400000 4 4
http://viasatmasters.lemon.ua/ua/calling/master/666759 5 9
http://viasatmasters.lemon.ua/ua/calling/region/1221400000 2 4
http://vk.com/away.php 2 2
http://viasatmasters.lemon.ua/ua/calling/region/5620800000 2 3
http://viasatmasters.lemon.ua/ua/calling/master/666752 0 1
http://viasatmasters.lemon.ua/ua/calling/region/0520400000 3 3
http://viasatmasters.lemon.ua/ua/calling/region/4625800000 2 4
http://viasatmasters.lemon.ua/ua/about 26 951
http://viasatmasters.lemon.ua/ua/calling/region/2312500000 1 2
http://viasatmasters.lemon.ua/ua/calling/master/132 0 1
http://viasatmasters.lemon.ua/ru/calling/master/12 22 464
http://viasatmasters.lemon.ua/ua/registration 78 165
http://viasatmasters.lemon.ua/ua/calling/region/7120600000 3 3
http://viasatmasters.lemon.ua/ua/calling/master/394 1 2
http://viasatmasters.lemon.ua/ua/calling/region/3520300000 1 2
http://viasatmasters.lemon.ua/ua/calling/master/666692 0 1
http://viasatmasters.lemon.ua/ua/calling/master/127 0 1
http://viasatmasters.lemon.ua/ua/calling/master/666756 0 1
http://viasatmasters.lemon.ua/ua/calling/master/38 0 1
http://viasatmasters.lemon.ua/ua/calling/region/7110400000 2 2
http://viasatmasters.lemon.ua/ru/calling/region/8000000000 2 2
END_PAGEREFS

# Search keyphrases - Number of search
# The 10 first number of search must be first (order not required for others)
BEGIN_SEARCHWORDS 0
END_SEARCHWORDS

# Search keywords - Number of search
# The 10 first number of search must be first (order not required for others)
BEGIN_KEYWORDS 0
END_KEYWORDS

# Errors - Hits - Bandwidth
BEGIN_ERRORS 8
403 3 942
206 61 866926
303 17 0
307 20 0
302 1072 167926
500 100 188609
404 963 310832
301 8 2728
END_ERRORS

# URL with 404 errors - Hits - Last URL referer
BEGIN_SIDER_404 81
/images/avatars/21/be0163/b_be0163.png 1 http://viasatmasters.lemon.ua/ua/calling/region/6522300000
/assets/img/elements/forms/checkboxes.png 30 http://viasat_masters.lemon.ua/assets/css/panel.css
/images/avatars/158/47974/b_47974.jpg 2 http://viasat_masters.lemon.ua/ua/calling/region/8000000000
/images/avatars/21/be0163/ 1 -
/images/avatars/128/a4d50/d_a4d50.png 2 http://viasatmasters.lemon.ua/ua/calling/master/128
/images/avatars/110/a3f3f/b_a3f3f.png 1 http://viasatmasters.lemon.ua/ua/calling/region/1224800000
/images/avatars/158/8a865/8a865.jpg 2 -
/images/avatars/8a865.png 30 http://viasat_masters.lemon.ua/ua/calling/region/8000000000
/images/avatars/21/be0163/d_be0163.jpg 1 http://viasatmasters.lemon.ua/ua/calling/master/21
/images/avatars/18/bk0442/d_bk0442.JPG 10 http://viasatmasters.lemon.ua/ua/calling/master/18
/images/avatars/84/499dd/d_499dd.png 2 http://viasatmasters.lemon.ua/ua/calling/master/84
/images/avatars/15/bt1690/d_bt1690.jpg 4 http://viasatmasters.lemon.ua/ua/calling/master/15
/images/avatars/158/8a865/8a865.png 1 http://viasatmasters.lemon.ua/ua/calling/region/8000000000
/images/avatars/8/ae2185/d_ae2185.png 1 http://viasatmasters.lemon.ua/ua/calling/master/8
/images/avatars/7/bi7080/b_bi7080.jpg 12 http://viasatmasters.lemon.ua/ua/calling/region/5323800000
/images/avatars/8/ae2185/d_ae2185.JPG 1 http://viasatmasters.lemon.ua/ua/calling/master/8
/images/avatars/11/ac1587/d_ac1587.png 2 http://viasatmasters.lemon.ua/ua/calling/master/11
/images/avatars/7/bi7080/d_bi7080.jpg 7 http://viasatmasters.lemon.ua/ua/calling/master/7
/images/avatars/158/47974/47974.png 1 http://viasatmasters.lemon.ua/ua/calling/region/8000000000
/images/avatars/401/b6891/b_b6891.png 2 http://viasatmasters.lemon.ua/ua/calling/region/3220800000
/images/avatars/15/bt1690/b_bt1690.jpg 18 http://viasatmasters.lemon.ua/ua/calling/region/6520600000
/images/avatars/94/8b7d7/d_8b7d7.png 1 http://viasatmasters.lemon.ua/ua/calling/master/94
/images/avatars/158/47974/b_47974.png 2 http://viasatmasters.lemon.ua/ua/calling/region/8000000000
/images/avatars/158/47974.png 1 http://viasatmasters.lemon.ua/ua/calling/region/8000000000
/images/avatars/158/8a865/a_8a865.png 1 -
/images/a_0788a.jpg 1 -
/images/avatars/168/a87af/d_a87af.png 2 http://viasatmasters.lemon.ua/ua/calling/master/168
/images/avatars/11/ac1587/d_ac1587.JPG 1 http://viasatmasters.lemon.ua/ua/calling/master/11
/images/avatars/158/8a865/b_8a865.png 3 -
/images/avatars/21/be0163/b_be0163.jpg 1 http://viasatmasters.lemon.ua/ua/calling/region/6522300000
/images/avatars/11/ac1587/d_ac1587.jpg 1 http://viasatmasters.lemon.ua/ua/calling/master/11
/assets/img/backgrounds/man_shaddow.png 5 -
/assets/css/Viasat%20Masters_style.css 66 http://viasatmasters.lemon.ua/ua/panel/pages/edit/page/1
/assets/lib/font-awesome/fonts/fontawesome-webfont.eot 92 http://viasat_masters.lemon.ua/ua/about
/images/avatars/401/b6891/d_b6891.png 2 http://viasatmasters.lemon.ua/ua/calling/master/401
/assets/img/master_defaul.png 1 http://viasatmasters.lemon.ua/ru/registration
/images/avatars/20/be0163/d_be0163.jpg 1 http://viasatmasters.lemon.ua/ua/calling/master/20
/images/avatar/a_0788a.jpg 1 -
/images/avatars/125/4b57b/d_4b57b.png 2 http://viasatmasters.lemon.ua/ua/calling/master/125
/images/avatars/8a865/b_8a865.png 1 -
/images/avatars/21/ 1 -
/assets/lib/bootstrap/3.3.5/fonts/glyphicons-halflings-regular.eot 92 http://viasat_masters.lemon.ua/ua/about
/images/avatars/4/bm2154/ 1 -
/images/avatars/4/bm2154/d_bm2154.jpg 1 http://viasatmasters.lemon.ua/ua/calling/master/4
/images/avatars/128/a4d50/b_a4d50.png 1 http://viasatmasters.lemon.ua/ua/calling/region/1224800000
/images/avatars/19/bi0461/b_bi0461.JPG 6 http://viasatmasters.lemon.ua/ua/calling/region/0710200000
/images/avatars/372/afa27/d_afa27.jpg 2 http://viasatmasters.lemon.ua/ua/calling/master/372
/images/avatars/5/bb2291/b_bb2291.JPG 3 http://viasatmasters.lemon.ua/ua/calling/region/4420600000
/images/avatars/5/bb2291/d_bb2291.JPG 2 http://viasatmasters.lemon.ua/ua/calling/master/5
/images/avatars/372/afa27/b_afa27.jpg 14 http://viasatmasters.lemon.ua/ua/calling/region/6323500000
/images/avatars/158/8a865.png 1 http://viasatmasters.lemon.ua/ua/calling/region/8000000000
/images/avatars/4/bm2154/d_bm2154.png 2 http://viasatmasters.lemon.ua/ua/calling/master/4
/images/avatars/185/6a9ac/d_6a9ac.jpg 2 http://viasat_masters.lemon.ua/ua/calling/master/185
/images/avatars/8/ae2185/b_ae2185.jpg 71 http://viasatmasters.lemon.ua/ua/calling/region/1224800000
/assets/img/arrow_down.png 61 http://viasatmasters.lemon.ua/ua/panel/pages/page
/images/avatars/47974.png 20 http://viasat_masters.lemon.ua/ua/calling/region/8000000000
/images/avatars/183/003d8/b_003d8.png 3 http://viasatmasters.lemon.ua/ua/calling/region/6510100000
/images/avatars/13/bb0293/d_bb0293.jpg 3 http://viasatmasters.lemon.ua/ua/calling/master/13
/images/avatars/19/bi0461/d_bi0461.JPG 3 http://viasatmasters.lemon.ua/ua/calling/master/19
/assets/img/panel_logo.png 191 http://viasatmasters.lemon.ua/ua/panel/pages/edit/page/1
/images/avatars/16/cb1499/d_cb1499.jpg 6 http://viasatmasters.lemon.ua/ua/calling/master/16
/images/avatars/a_8a865.png 1 -
/images/avatars/110/a3f3f/d_a3f3f.png 2 http://viasatmasters.lemon.ua/ua/calling/master/110
/images/avatars/389/04c96/d_04c96.png 2 http://viasatmasters.lemon.ua/ua/calling/master/389
/images/avatars/8a865/a_8a865.png 1 -
/images/avatars/9/ap4003/d_ap4003.jpg 9 http://viasatmasters.lemon.ua/ua/calling/master/9
/images/avatars/185/6a9ac/b_6a9ac.jpg 1 http://viasatmasters.lemon.ua/ua/calling/region/1224800000
/images/avatars/386/25abd/d_25abd.png 1 http://viasatmasters.lemon.ua/ua/calling/master/386
/images/avatars/16/cb1499/b_cb1499.jpg 2 http://viasatmasters.lemon.ua/ua/calling/region/7423300000
/images/avatars/143/93b25/d_93b25.png 1 http://viasatmasters.lemon.ua/ua/calling/master/143
/images/avatars/18/bk0442/b_bk0442.JPG 14 http://viasatmasters.lemon.ua/ua/calling/region/5625000000
/ua/registration/test 1 -
/images/avatars/666759/2ab56/d_2ab56.jpg 1 http://viasat_masters.lemon.ua/ua/calling/master/666759
/images/avatars/13/bb0293/b_bb0293.jpg 10 http://viasatmasters.lemon.ua/ua/calling/region/4410100000
/images/avatars/666666/a_0788a/a_0788a.jpg 1 -
/images/avatars/8/ae2185/d_ae2185.jpg 22 http://viasatmasters.lemon.ua/ua/calling/master/8
/images/avatars/383/9090d/d_9090d.png 2 http://viasatmasters.lemon.ua/ua/calling/master/383
/images/avatars/666666/a_0788a.jpg 2 -
/images/avatars/9/ap4003/b_ap4003.jpg 84 http://viasatmasters.lemon.ua/ua/calling/region/2312500000
/assets/img/arrow_up.png 2 http://viasatmasters.lemon.ua/ua/panel/comments/comment/
/images/avatars/188/82766/d_82766.png 2 http://viasatmasters.lemon.ua/ua/calling/master/188
END_SIDER_404

# Host - Pages - Hits - Bandwidth - Last visit date - [Start date of last visit] - [Last page of last visit]
# [Start date of last visit] and [Last page of last visit] are saved only if session is not finished
# The 10 first Hits must be first (order not required for others)
BEGIN_VISITOR 27
185.102.164.6 7130 8404 161111379 20161123173053 20161123160509 /ua
176.104.2.107 4995 14206 759704107 20161123180646 20161123170154 /ua
93.74.46.1 507 3242 270492071 20161122232730
89.162.145.210 444 813 39956798 20161123175430 20161123164227 /ua/calling
91.213.149.85 313 430 10716403 20161123153929
91.213.149.93 163 270 27206289 20161122120556
37.115.126.242 99 202 6335673 20161123143102
62.192.1.114 65 100 4446859 20161117092124
46.211.1.167 50 92 238418 20161123095843
194.44.223.253 30 44 538865 20161117165139
80.64.90.30 10 27 2574326 20161111140130
104.45.18.178 3 3 62254 20161122194713
213.110.144.155 3 20 903575 20161113003016
46.211.66.52 3 3 22281 20161117100836
67.221.35.252 1 2 16632 20161115151741
37.73.220.198 5 49 2376911 20161123114917
46.200.72.6 7 62 1082288 20161123122243
46.211.70.119 29 47 2087410 20161116181001
5.164.65.155 1 19 458696 20161110223849
23.101.61.176 2 2 58631 20161122181446
46.211.204.12 4 13 373198 20161119010129
178.54.139.253 2 2 77818 20161112100223
176.104.23.101 9 40 2931112 20161119122049
66.102.9.25 2 2 14854 20161117100159
176.14.250.10 4 14 1833281 20161111152501
178.150.31.0 8 10 218424 20161111135143
77.47.130.226 18 61 1423285 20161123102842
END_VISITOR

# Date - Pages - Hits - Bandwidth - Visits
BEGIN_DAY 14
20161110 505 2620 112714489 4
20161111 896 2080 112560044 12
20161112 2 2 77818 1
20161113 92 758 64136721 3
20161114 1528 6372 462886435 7
20161115 1052 1655 65996552 4
20161116 456 829 45759588 11
20161117 382 538 42581687 11
20161118 147 261 15550422 8
20161119 5 14 380642 2
20161120 39 112 10876445 3
20161121 4380 5219 95346831 8
20161122 3463 5414 200107808 16
20161123 960 2269 80834028 17
END_DAY

# Session range - Number of visits
BEGIN_SESSION 7
1h+ 19
5mn-15mn 13
0s-30s 35
2mn-5mn 9
30s-2mn 9
15mn-30mn 7
30mn-1h 12
END_SESSION

# URL - Pages - Bandwidth - Entry - Exit
# The 10 first Pages must be first (order not required for others)
BEGIN_SIDER 647
/ua/calling/ajax_search_regions 4715 74943770 0 0
/ua/calling 921 6257309 8 4
/ru/calling/ajax_search_regions 742 11816134 0 1
/assets/fonts/Beau_Sans_Pro/Beau_Sans_Pro/PFBeauSansPro-Book.ttf 630 282808000 0 15
/phpmyadmin/index.php 529 2617589 0 1
/phpmyadmin/sql.php 494 50065163 0 0
/ua/calling/master/12 292 3081734 3 1
/ua 283 2158970 13 14
/ua/about/hello 273 9579275 1 0
/ua/instructions 239 9347106 6 15
/ua/calling/region/7124000000 2 79752 0 0
/ua/calling/master/179 3 33108 0 0
/ua/calling/master/54 3 32466 0 0
/ua/calling/master/386 4 43112 0 0
/phpmyadmin/server_sql.php 2 16090 0 0
/ua/calling/master/113 3 32085 0 0
/ua/calling/region/4810100000 5 58490 0 0
/ua/registration/update 81 15290057 2 2
/ua/calling/master/666684 1 10752 0 0
/ua/calling/region/6124600000 1 6522 0 0
/phpmyadmin/tbl_select.php 2 165182 0 0
/ru 54 396982 0 1
/ua/calling/region/3222400000 12 482347 0 0
/ua/panel/pages/edit/page/2 28 1484289 0 1
/ua/panel/pages/page 23 532482 0 1
/ua/panel 24 310057 0 0
/ua/calling/master/13 4 43403 0 0
/ua/panel/menus/menu_item 1 45054 0 0
/ua/calling/region/4824200000 1 21992 0 0
/ua/calling/master/145 1 10756 0 0
/ua/calling/master/173 1 13422 0 0
/ua/calling/region/3223700000 1 37252 0 0
/ua/calling/region/1224500000 1 21887 0 0
/ua/calling/region/3510900000 3 65940 0 0
/ua/calling/region/5925300000 1 16736 0 0
/ua/calling/region/2123600000 4 36328 0 0
/ua/calling/master/90 1 10762 0 0
/ua/calling/master/390 1 10776 0 0
/ua/calling/region/4421600000 1 11651 0 0
/ua/calling/master/132 1 11061 0 0
/ua/calling/master/383 15 196955 0 0
/ua/calling/region/7421100000 1 11621 0 0
/ua/calling/master/86 2 21561 0 0
/ru/about 11 84349 0 0
/ua/calling/region/7310100000 3 34899 0 0
/ua/calling/region/3520300000 1 24547 0 0
/ua/calling/region/4822300000 1 19418 0 0
/ua/img 2 10276 0 0
/ua/panel/comments/change 18 0 0 0
/ua/calling/region/0710100000 7 99183 0 0
/ua/calling/master/666741 1 10765 0 0
/ua/calling/master/154 3 41046 0 0
/ua/calling/region/4622700000 3 73104 0 0
/ua/calling/master/43 1 10760 0 0
/ua/faq/parameters 35 865719 0 0
/ua/calling/region/5920600000 2 43766 0 0
/ua/calling/region/2125300000 4 46532 0 0
/ua/calling/region/4623900000 1 26982 0 0
/ua/calling/master/101 1 10780 0 0
/phpmyadmin/tbl_sql.php 34 289449 0 0
/ua/calling/region/0521400000 5 70995 0 0
/ua/calling/master/358 1 11065 0 0
/ua/calling/master/7 7 80090 0 0
/ua/calling/master/65 1 10772 0 0
/ua/calling/region/1412600000 1 16768 0 0
/ua/calling/master/81 1 10759 0 0
/ua/calling/region/4425100000 1 11657 0 1
/ru/calling 142 953005 0 0
/phpmyadmin/querywindow.php 1 8913 0 0
/ua/calling/master/216 1 10630 0 0
/ua/calling/master/185 3 67441 0 0
/ua/calling/region/5321000000 3 50304 0 0
/ua/calling/region/0520600000 2 23256 0 0
/ua/calling/region/7120900000 6 239244 0 0
/ua/calling/master/365 1 10646 0 0
/ua/calling/master/385 1 11218 0 0
/ua/calling/master/69 1 11044 0 0
/ua/calling/region/4424000000 4 46574 0 0
/ua/calling/master/388 1 10749 0 0
/ua/calling/region/7110100000 20 628201 1 1
/ua/calling/master/166 1 11025 0 0
/ua/calling/master/21 3 33176 0 0
/ua/calling/master/170 1 11141 0 0
/ua/calling/region/3221000000 2 72036 0 0
/ua/calling/master/666712 1 10623 0 0
/ua/calling/master/666746 1 10789 0 0
/ua/calling/region/7123100000 1 39876 0 0
/ua/calling/master/666673 1 10752 0 0
/ua/calling/region/2124400000 4 46544 0 0
/ru/instructions/model/1 6 96986 0 0
/ua/calling/master/140 1 10983 0 0
/ua/calling/master/382 2 28448 0 0
/ua/calling/region/6810800000 2 18156 0 0
/ua/calling/master/114 3 33466 0 0
/ua/calling/master/99 2 35976 0 0
/ua/calling/master/377 3 32127 0 0
/ua/calling/master/3 45 403654 0 1
/ua/panel/pages/edit/page/6 2 129149 0 0
/ua/calling/region/8000000000 109 1329965 1 3
/ua/calling/master/666685 1 10760 0 0
/ua/calling/master/339 2 22278 0 0
/ua/calling/master/201 1 10731 0 0
/ua/calling/master/401 4 60410 0 0
/ua/calling/master/91 1 11039 0 0
/ua/calling/master/80 2 25977 0 0
/ua/calling/master/666759 9 230119 0 1
/ua/calling/master/158 25 279212 1 0
/ru/calling/region/1410100000 1 26964 0 0
/ua/panel/media/filemanager 13 155584 0 0
/ua/calling/region/7110800000 1 34715 0 0
/ua/calling/region/6320800000 1 34755 0 0
/ua/calling/region/7425500000 1 7863 0 0
/ua/calling/master/666683 1 10756 0 0
/ua/calling/master/340 2 21637 0 0
/ua/calling/region/4621500000 3 50151 0 0
/ua/calling/master/178 1 10934 0 0
/ua/calling/master/184 2 30826 0 0
/phpmyadmin/js/messages.php 56 1346662 0 0
/ua/calling/region/3223100000 5 240786 0 0
/ua/calling/region/2623600000 3 65225 0 0
/ua/calling/region/7422000000 1 14187 0 0
/ua/calling/region/1413200000 1 16755 0 0
/ua/calling/region/1412900000 5 135140 0 0
/ua/calling/master/31 1 10776 0 0
/ua/calling/master/666669 1 10756 0 0
/ua/calling/region/3520500000 1 21979 0 0
/ua/calling/region/2310100000 10 321640 0 0
/ru/calling/region/8000000000 6 70017 0 1
/phpmyadmin/tbl_change.php 9 831457 0 0
/ua/calling/master/18 8 87948 0 0
/ua/calling/region/4821700000 1 19422 0 0
/ua/calling/region/3221400000 1 44936 0 0
/ua/calling/region/4624800000 5 147705 0 0
/ua/calling/master/88 3 41260 0 0
/ua/calling/master/42 4 59381 0 0
/ua/calling/master/62 2 21529 0 0
/ua/calling/master/87 1 10755 0 0
/ua/calling/master/153 1 16686 0 0
/ua/instructions/model/1 22 359150 0 1
/ua/calling/master/666734 1 10799 0 0
/ua/calling/region/6822100000 3 50283 0 0
/ua/calling/region/1420900000 1 16777 0 0
/ua/calling/master/666737 1 10752 0 0
/ua/calling/master/10 6 53420 0 1
/ua/calling/region/9000000 1 6492 0 0
/ua/calling/region/4423300000 1 14783 0 0
/ua/calling/region/5925600000 1 16747 0 0
/ua/calling/master/391 1 14125 0 0
/ua/calling/region/5110100000 4 36472 0 0
/ua/calling/region/0721100000 2 33572 0 0
/ua/calling/region/6110100000 9 58634 0 0
/ua/calling/region/5323600000 2 38584 0 0
/ua/calling/master/376 1 10780 0 0
/ua/calling/master/364 2 22400 0 0
/ua/about%20-- 3 20913 2 0
/phpmyadmin/tbl_create.php 5 1191997 0 0
/ua/rules 14 393478 0 0
/ua/calling/master/316 7 118469 0 0
/ua/calling/master/666747 1 11088 0 0
/ua/calling/master/375 1 10916 0 0
/phpmyadmin/db_sql.php 1 9065 0 0
/phpmyadmin/js/get_image.js.php 37 231731 0 0
/ua/calling/region/2122400000 4 26064 0 0
/ua/calling/master/93 2 22541 0 0
/ua/calling/region/6324200000 2 69526 0 0
/ua/calling/region/2610100000 3 42594 0 0
/phpmyadmin/tbl_row_action.php 22 1939151 0 0
/ua/calling/master/57 1 10768 0 0
/ua/calling/master/363 1 11486 0 0
/ua/calling/master/102 1 11017 0 0
/ua/calling/region/3224400000 2 79628 0 0
/ua/calling/region/1221800000 6 177729 0 0
/ua/calling/region/6510100000 6 98331 0 0
/ua/calling/region/2324900000 1 29607 0 0
/ua/calling/region/1822500000 2 28392 0 0
/ua/calling/master/389 4 44321 0 0
/ua/calling/master/9 10 133375 0 0
/ua/calling/master/200 1 10749 0 0
/ua/calling/master/176 3 32417 0 0
/ru/calling/master/666745 2 22942 0 0
/ua/calling/master/666749 1 10763 0 0
/ua/calling/region/5925000000 3 81051 0 0
/ua/calling/master/319 1 10638 0 0
/ua/calling/master/372 1 10930 0 0
/ua/calling/master/384 1 14197 0 0
/ua/calling/region/4410100000 6 83139 0 0
/ua/calling/master/298 1 10626 0 0
/ua/calling/master/11 5 54108 0 0
/ua/calling/region/6824700000 1 9085 0 0
/ua/calling/master/280 1 10893 0 0
/ua/calling/region/2110800000 2 12982 0 0
/ua/calling/region/2121900000 8 65491 0 0
/ua/calling/region/5321300000 6 100590 0 0
/ua/calling/master/119 2 22613 0 0
/phpmyadmin/export.php 1 64454 0 0
/ua/calling/region/1413800000 2 38672 0 0
/ua/calling/master/19 6 58142 0 0
/ua/calling/region/4624200000 1 19276 0 0
/assets/lib/tinymce/skins/lightgray/fonts/tinymce.woff 5 59780 0 0
/ua/calling/region/1412300000 9 243611 0 0
/ua/calling/master/109 3 34128 0 0
/ua/calling/master/30 3 40361 0 0
/ua/calling/master/16 3 32548 0 0
/ua/calling/region/1824700000 2 28470 0 0
/ua/calling/master/191 2 22740 0 1
/ua/calling/master/259 2 21689 0 0
/ua/panel/comments/comment/ 5 176252 0 0
/ua/calling/master/95 5 54057 0 0
/ua/calling/master/187 4 43301 0 0
/ua/calling/master/76 1 10776 0 0
/ua/calling/region/0522400000 1 16758 0 0
/ua/calling/master/110 9 99668 0 0
/ua/calling/master/666760 1 29928 0 1
/ua/calling/master/188 3 32085 0 0
/ua/calling/region/0724500000 1 11665 0 0
/ua/calling/master/666743 1 10795 0 0
/ua/calling/region/2624400000 1 14202 0 0
/ua/calling/master/83 3 32140 0 0
/ua/calling/region/3210900000 1 37227 0 0
/ua/calling/master/160 1 10905 0 0
/ua/calling/master/146 2 22582 0 0
/ru/panel/auth/login 1 3450 0 0
/ua/calling/region/0723600000 3 42687 0 0
/ua/calling/region/6521200000 4 87964 0 0
/ua/calling/master/58 1 10766 0 0
/ua/calling/master/74 1 14045 0 0
/ua/calling/region/2610400000 2 28354 0 0
/ua/calling/master/1 5 51383 0 0
/ua/registration 115 2333021 8 9
/ua/calling/region/1224800000 2 46352 0 0
/ua/calling/master/44 2 28957 0 0
/ua/calling/region/2620400000 5 122310 0 0
/ua/calling/region/3221200000 5 237470 0 0
/ua/calling/region/3210700000 2 74466 0 0
/assets/fonts/Beau_Sans_Pro/Beau_Sans_Pro/PFBeauSansPro-Reg.ttf 203 74745396 0 4
/ua/calling/master/106 3 33669 0 0
/ua/calling/region/2625200000 2 43824 0 0
/ua/calling/master/193 8 119295 0 0
/ua/calling/region/1211600000 4 77166 0 0
/ua/calling/region/2310400000 4 128642 0 0
/ua/calling/master/362 1 11188 0 0
/ua/calling/master/39 1 10790 0 0
/ua/calling/region/4610600000 3 50094 0 0
/ua/calling/region/1425200000 2 48954 0 0
/ua/calling/region/6321600000 2 59198 0 0
/ru/comments/ajax_set_comment 18 2446 0 0
/ua/calling/region/2320600000 4 128670 0 0
/ua/calling/region/5310100000 14 188387 0 0
/ua/calling/master/181 1 11220 0 0
/ua/calling/master/100 1 10800 0 0
/ua/calling/region/6820900000 4 36316 0 0
/ua/calling/region/7123700000 2 65596 0 0
/ua/registration/ 1 21017 0 0
/ua/calling/master/123 1 10743 0 0
/ua/calling/master/133 3 32724 0 0
/ua/calling/master/92 1 11043 0 0
/ua/calling/master/45 1 15717 0 0
/ua/calling/region/7322500000 1 14220 0 0
/ua/uploads/ 1 5171 0 0
/ua/calling/region/5122300000 1 11698 0 0
/ua/calling/master/387 1 13948 0 0
/ua/calling/master/666782 1 10694 0 0
/ua/calling/region/4824500000 2 43968 0 0
/ru/faq 46 1013149 0 1
/ua/calling/region/1823400000 2 28392 0 0
/ua/calling/ajax_set_rate 67 4288 0 0
/ua/calling/master/56 2 31504 0 0
/ua/calling/region/3522800000 1 19418 0 0
/ua/calling/master/263 4 72474 0 0
/ua/calling/region/0522800000 1 14342 0 0
/ua/calling/master/351 3 32600 0 0
/ua/calling/master/177 2 21576 0 0
/ua/faq 103 2380690 2 5
/ua/calling/region/3525800000 3 58242 0 0
/ua/calling/master/120 5 54986 0 0
/ua/panel/comments/comment 24 832507 0 0
/ua/calling/region/3510600000 1 16831 0 0
/ua/calling/master/94 2 22174 0 0
/ua/calling/region/0520200000 8 117448 0 0
/ua/calling/region/1221400000 3 88782 0 0
/phpmyadmin/import.php 123 4521922 0 0
/ua/calling/master/112 1 11069 0 0
/ua/calling/master/666733 1 10753 0 0
/ua/calling/master/374 2 21564 0 0
/ua/calling/master/85 3 41448 1 0
/ua/calling/master/138 1 10900 0 0
/ua/calling/master/180 1 10766 0 0
/ua/calling/master/666753 1 11541 0 0
/ua/calling/region/4621200000 1 21830 0 0
/ua/calling/region/7124300000 1 39866 0 0
/ua/calling/master/59 1 10909 0 0
/ua/calling/master/27 5 73921 0 0
/ua/calling/master/17 6 68555 0 0
/ua/calling/region/6323500000 6 208530 0 0
/ua/calling/master/395 1 10805 0 0
/ua/calling/region/4821400000 1 21980 0 0
/ua/calling/master/192 4 44474 0 0
/ua/calling/master/77 1 10753 0 0
/ua/calling/master/198 1 10636 0 0
/ua/calling/region/6810100000 7 117376 0 0
/ru/rules 6 165167 0 0
/ua/calling/master/373 1 10940 0 0
/ua/test 3 20832 0 0
/ua/calling/master/394 1 10906 0 0
/ua/calling/region/0722800000 6 115902 0 0
/ua/calling/master/64 3 40986 0 0
/ua/calling/region/6520600000 4 87932 0 0
/ua/calling/master/361 1 11354 0 0
/ua/calling/master/155 2 28460 0 0
/ua/calling/master/666695 1 10629 0 0
/ua/panel/pages/edit/page/1 21 495853 0 0
/ua/calling/master/161 1 14049 0 0
/ua/calling/master/75 1 11518 0 0
/ua/calling/region/6325700000 1 29605 0 0
/ua/calling/region/7410400000 2 23196 0 0
/ua/calling/master/129 3 33847 0 0
/ua/calling/master/26 9 132135 0 1
/ua/calling/master/4 8 79847 0 0
/ru/instructions/model/3 1 15906 0 0
/ua/calling/master/666697 1 10760 0 0
/ua/calling/region/1410100000 21 566793 0 0
/ua/calling/region/2324800000 5 160900 0 0
/ua/calling/region/1423900000 4 97870 0 0
/ua/calling/region/0725500000 1 14227 0 0
/assets/lib/simple-line-icons/fonts/Simple-Line-Icons.ttf 6 211824 0 0
/ru/faq/parameters 9 217748 0 0
/ua/calling/region/7423800000 1 14185 0 0
/ua/calling/master/82 2 21388 0 0
/ua/calling/master/666723 1 10754 0 0
/ua/calling/region/6821500000 1 9083 0 0
/ua/calling/master/186 1 11078 0 0
/ua/calling/region/4624500000 1 19281 0 0
/ua/instructions/model/0 1 15857 0 0
/ua/calling/master/151 1 10937 0 0
/ua/i 1 5138 0 0
/ua/calling/master/163 2 30484 0 0
/ua/registration/up 211 2075197 0 0
/ua/calling/region/1420300000 1 16770 0 0
/ua/calling/master/104 2 21661 0 0
/ua/calling/region/6823600000 2 38590 0 0
/ua/calling/master/128 1 11774 0 0
/ua/calling/master/368 2 39084 0 0
/ua/calling/master/666692 2 21262 0 0
/ua/panel/menus/menu 2 45341 0 0
/ua/calling/region/1422400000 1 21925 0 0
/ua/calling/region/0510500000 1 11611 0 0
/ua/calling/region/5911000000 3 42492 0 0
/ua/calling/master/73 1 11128 0 0
/ua/calling/master/66 1 10768 0 0
/ua/calling/region/3524000000 6 116520 0 0
/ua/calling/region/4425400000 2 23294 0 0
/ua/calling/master/666698 1 10754 0 0
/assets/lib/tinymce/skins/lightgray/fonts/tinymce.ttf 4 47520 0 0
/ua/calling/master/666732 1 11482 0 0
/ua/calling/master/38 2 30779 0 0
/ua/calling/master/243 2 21219 0 0
/ua/calling/region/1414100000 1 19314 0 0
/ua/calling/region/3210500000 9 335097 0 0
/ua/calling/region/0520800000 9 127782 0 0
/ua/calling/region/4625100000 1 19297 0 0
/ua/calling/master/61 1 15380 0 0
/ua/calling/master/124 1 10926 0 0
/ua/calling/master/34 3 43955 0 0
/ua/calling/master/49 1 10931 0 0
/ua/calling/master/174 1 10764 0 0
/ua/calling/master/157 1 14165 0 0
/ru/calling/master/98 2 21332 0 0
/ua/calling/region/6123000000 1 6514 0 0
/ua/calling/master/378 1 13491 0 0
/ua/calling/region/3221800000 7 296590 0 0
/ua/calling/region/6522300000 3 58054 0 0
/ua/calling/master/137 1 11215 0 0
/ua/calling/master/117 2 22845 0 0
/ua/calling/master/28 1 11026 0 0
/ua/calling/master/148 2 21970 0 0
/assets/lib/simple-line-icons/fonts/Simple-Line-Icons.woff 10 593240 0 0
/phpmyadmin/db_structure.php 28 3896854 0 0
/ua/calling/region/5610100000 4 46560 0 0
/ua/calling/master/666751 1 10732 0 1
/ua/calling/region/4412500000 1 14187 0 0
/ua/calling/region/6322000000 2 69434 0 0
/ua/calling/region/7120600000 2 74596 0 0
/ru/calling/master/89 1 11146 0 0
/ua/calling/region/6822700000 1 14226 0 0
/ua/calling/master/348 2 21217 0 0
/ua/calling/region/5910300000 1 14164 0 0
/ua/calling/master/666755 2 21864 0 0
/ua/calling/master/360 1 10760 0 0
/ua/calling/master/666676 1 10742 0 0
/ua/calling/region/3220400000 3 127212 0 0
/ua/calling/master/51 2 23011 0 0
/ua/calling/region/1425500000 1 16779 0 0
/ua/calling/region/1810100000 5 58015 0 0
/ua/calling/master/666738 1 12479 0 0
/ua/calling/region/3210600000 5 183588 0 0
/phpmyadmin/js/get_scripts.js.php 120 64862890 0 0
/ua/calling/master/131 2 22058 0 0
/ua/calling/master/25 1 16402 0 0
/ua/calling/master/143 1 10926 0 0
/ua/calling/region/6820300000 2 18162 0 0
/ua/calling/region/1424200000 2 54090 0 0
/ua/calling/region/1423300000 1 16774 0 0
/ru/calling/master/12 44 488573 0 0
/ua/calling/master/97 4 43241 0 0
/ua/calling/master/35 1 14539 0 0
/ua/calling/region/6323300000 1 32164 0 0
/ua/calling/master/370 1 10764 0 0
/ua/calling/region/2110100000 8 52536 0 0
/ua/calling/master/190 1 11334 0 0
/ua/calling/region/0123500000 1 6520 0 0
/ua/panel/pages/edit/page/3 1 20735 0 0
/ua/calling/region/1413500000 5 147830 0 0
/ua/calling/region/2310700000 7 207183 0 0
/ua/calling/master/14 1 11180 0 0
/ua/calling/region/0721800000 3 29845 0 0
/ua/calling/region/5121200000 1 9143 0 0
/ua/calling/region/5922300000 2 43810 0 0
/ua/calling/region/4620300000 4 87360 0 0
/ua/calling/region/5910400000 2 28332 0 0
/ua/calling/master/130 1 11324 0 0
/ua/calling/master/149 1 10754 0 0
/ua/calling/region/1225800000 1 21896 0 0
/ua/calling/master/122 1 14450 0 0
/ua/calling/master/150 1 11929 0 0
/phpmyadmin/tbl_export.php 1 54047 0 0
/phpmyadmin/tbl_structure.php 47 3513518 0 0
/ua/calling/master/136 1 14191 0 0
/ru/calling/ajax_set_rate 2 239 0 0
/ua/calling/region/0710400000 2 23284 0 0
/ua/calling/master/189 1 11115 0 0
/ua/calling/region/4610900000 2 33388 0 0
/ua/calling/region/7420600000 4 66956 0 0
/ua/calling/master/205 1 10745 0 0
/ru/ 5 30895 1 1
/phpmyadmin/navigation.php 127 4156463 0 0
/ua/calling/master/29 2 21557 0 0
/ua/comments/ajax_set_comment 33 4801 0 0
/ru/registration 66 1297562 0 0
/ua/calling/region/3523100000 1 24542 0 0
/ua/calling/region/6321200000 1 26990 0 0
/ua/calling/master/118 3 32631 0 0
/ua/calling/master/78 2 21549 0 0
/ru/calling/master/9 1 14226 0 0
/ua/calling/master/47 1 15725 0 0
/ua/calling/region/1820300000 2 23252 0 0
/ua/calling/master/139 1 10760 0 0
/ua/calling/master/666761 8 305320 0 0
/ua/polices 17 415162 0 0
/phpmyadmin/phpmyadmin.css.php 62 5519699 0 0
/ua/calling/region/0710700000 3 42621 0 0
/ua/calling/region/4622400000 1 19283 0 0
/ua/calling/master/175 2 22528 0 0
/ua/calling/region/1421200000 1 16780 0 0
/ua/calling/region/3510100000 3 44484 0 0
/ua/calling/region/5620800000 2 38668 0 0
/ua/calling/master/67 1 10896 0 0
/ua/calling/master/666752 5 83467 0 0
/ua/calling/region/1225000000 1 19318 0 0
/ua/calling/master/105 2 21599 0 1
/ua/calling/master/84 1 11839 0 0
/ua/calling/master/398 1 10804 0 0
/ua/calling/region/0520400000 3 34890 0 0
/ua/calling/master/96 1 13705 0 0
/ua/calling/region/5625400000 1 11659 0 0
/ua/calling/region/1211000000 7 153058 0 0
/ua/calling/master/53 1 10741 0 0
/ua/calling/master/666742 1 10884 0 0
/ua/calling/region/4820600000 2 33574 0 0
/ua/calling/master/196 1 10632 0 0
/ua/calling/region/3225500000 2 84772 0 0
/ua/calling/region/5320400000 1 14196 0 0
/ua/calling/master/182 1 11210 0 0
/ua/calling/master/666754 2 28838 0 0
/ua/calling/region/2322700000 2 59227 0 0
/ua/calling/region/0523000000 8 113528 0 0
/ua/registration/ajax_get_districts 119 2632196 0 0
/ua/calling/master/50 1 11341 0 0
/ua/calling/master/125 3 32400 0 0
/ua/calling/master/15 2 23011 0 0
/ua/calling/region/1810900000 4 46396 0 0
/ua/calling/region/2312500000 2 64306 0 0
/ua/calling/region/1811000000 1 12186 0 0
/ua/calling/master/63 2 23280 0 0
/ru/polices 6 141862 0 0
/ru/instructions 44 1701097 1 1
/ua/calling/master/70 2 21526 0 0
/ua/calling/master/68 1 10795 0 0
/ua/calling/master/79 1 12494 0 0
/ua/calling/master/141 1 15417 0 0
/ua/calling/region/3525500000 2 38828 0 0
/ua/calling/region/4623000000 4 72600 0 0
/ua/calling/master/20 1 10816 0 0
/ua/calling/region/6120400000 1 6518 0 0
/ua/calling/master/666744 1 10932 0 0
/ua/calling/master/115 3 45044 0 0
/ua/faq/s 2 24251 0 0
/ua/calling/master/8 19 303790 0 0
/ua/calling/region/0710200000 3 50385 0 0
/ua/calling/region/0510100000 13 150943 0 0
/ua/calling/master/171 1 10782 0 0
/ua/calling/master/135 1 10788 0 0
/ua/calling/master/36 1 10759 0 0
/ua/calling/region/7425100000 1 14193 0 0
/ua/calling/master/666757 1 10814 0 0
/ua/calling/region/4825400000 4 77755 0 1
/ua/calling/region/1820600000 3 65553 0 0
/ua/calling/region/0525300000 2 23268 0 0
/ua/calling/region/4424500000 1 11647 0 0
/ua/calling/master/164 1 11348 0 0
/ua/calling/master/159 2 28382 0 0
/ua/calling/region/5625000000 7 117670 0 0
/ua/calling/region/2110400000 5 32495 0 0
/ua/calling/region/1223200000 2 59200 0 0
/ua/calling/region/1423000000 2 38722 0 0
/ua/calling/region/7423300000 1 16739 0 0
/ua/calling/region/3211200000 10 360712 0 0
/ua/calling/region/1210100000 4 98346 0 0
/ua/calling/master/126 1 11001 0 0
/ua/calling/master/98 9 96246 0 0
/ua/calling/region/2624000000 6 146724 0 1
/ua/calling/master/392 1 11074 0 0
/ua/calling/master/194 8 87390 0 0
/ua/calling/region/2124800000 3 34869 0 0
/ua/calling/region/6125000000 4 26096 0 0
/ua/calling/region/1222900000 1 21885 0 0
/ua/calling/region/5910100000 4 66864 0 0
/ua/calling/master/116 3 33424 0 0
/ua/calling/master/666736 2 27858 0 0
/ua/calling/master/32 3 43748 0 0
/ua/calling/region/5324800000 1 14190 0 0
/ua/calling/master/48 2 21552 0 0
/ua/calling/master/666717 1 10643 0 1
/ua/calling/master/172 1 11343 0 0
/ua/calling/region/6320600000 2 64318 0 0
/ua/calling/region/1421700000 2 43828 0 0
/ua/calling/region/6522600000 1 27131 0 0
/ua/calling/region/1211900000 4 77221 0 0
/ua/calling/master/127 1 15405 0 0
/ua/calling/region/1415300000 4 77329 0 0
/ua/calling/master/332 2 21260 0 0
/ua/calling/master/103 1 15740 0 0
/ua/calling/region/6820600000 3 50340 0 0
/ua/calling/region/5324000000 2 28400 0 0
/ua/calling/master/261 2 21705 0 0
/ua/calling/region/1823100000 9 104580 0 0
/ua/calling/region/5621800000 1 11665 0 0
/ua/calling/region/2320300000 2 64386 0 0
/ua/calling/master/5 2 19649 0 0
/ua/calling/master/144 1 10772 0 0
/ua/calling/region/2324200000 1 29619 0 0
/ua/calling/region/3220800000 4 161962 0 0
/phpmyadmin/tbl_replace.php 101 406434 0 0
/ua/calling/master/397 1 14234 0 0
/ua/calling/region/6122400000 4 26056 0 0
/ua/calling/master/367 1 10881 0 0
/ua/calling/master/294 1 10731 0 0
/ua/calling/master/169 5 53622 0 0
/ua/calling/region/1414700000 3 73341 0 0
/ua/calling/region/6825800000 2 33582 0 0
/ua/calling/region/2323600000 1 30189 0 1
/ua/calling/region/5625800000 1 14229 0 0
/ua/calling/region/4420600000 1 14204 0 0
/ua/panel/auth/login 20 69154 3 1
/ua/calling/master/72 1 10757 0 0
/ua/calling/master/89 2 19797 0 0
/ua/calling/region/6320400000 1 29605 0 0
/ua/calling/master/71 1 10891 0 0
/ua/calling/master/162 1 10772 0 0
/ua/calling/master/393 1 15760 0 0
/assets/fonts/Beau_Sans_Pro/Beau_Sans_Pro/PFBeauSansPro-SeBold.ttf 143 45152316 0 1
/ua/calling/master/168 4 43168 0 0
/ua/calling/region/4610100000 7 148059 0 0
/ua/calling/master/55 1 11231 0 0
/ru/instructions/model/5 3 47496 0 0
/ua/calling/region/5924100000 2 28366 0 0
/ua/calling/region/4625800000 2 43722 0 0
/ua/calling/master/666710 1 10615 0 0
/ua/calling/master/369 1 15387 0 0
/phpmyadmin/tbl_addfield.php 10 504598 0 0
/ua/calling/region/1820900000 4 66972 0 0
/ua/calling/region/3222000000 3 119478 0 0
/phpmyadmin/ 26 290606 0 0
/ua/calling/region/6824400000 3 34935 0 0
/ua/calling/region/7422400000 2 15722 0 0
/ua/registration/up/5 1 9660 0 0
/ua/calling/region/4820900000 3 58254 0 0
/ua/calling/master/41 1 11024 0 0
/phpmyadmin/version_check.php 23 897 0 0
/ua/calling/master/60 1 10765 0 0
/ua/calling/master/134 2 21532 0 0
/ua/calling/master/52 1 11064 0 0
/ua/calling/master/165 2 22144 0 0
/ua/calling/master/33 1 10751 0 0
/ua/calling/master/666735 1 10773 0 0
/ua/calling/region/1221000000 1 21885 0 0
/ua/calling/master/379 1 10760 0 0
/ua/calling/master/152 3 58133 0 0
/ua/calling/master/183 1 11493 0 0
/ru/registration/ajax_get_districts 9 419350 0 0
/ua/calling/region/5320600000 2 28360 0 0
/ua/calling/master/203 2 29209 0 0
/ua/calling/region/7410100000 1 12164 0 0
/ua/calling/region/6524700000 1 19390 0 0
/ua/calling/region/109 1 7029 0 0
/ua/calling/master/37 1 11047 0 0
/ua/calling/master/219 4 43179 0 0
/ua/calling/region/5310700000 1 11605 0 0
/ua/calling/region/5623800000 2 23332 0 0
/ua/calling/master/156 1 11093 0 0
/ua/calling/region/3224200000 1 39808 0 0
/ua/calling/region/1421500000 2 33539 0 0
/ua/calling/master/293 1 10731 0 0
/ua/calling/region/2322100000 1 32183 0 0
/ua/calling/region/2323900000 1 32168 0 0
/ua/calling/master/666758 1 10801 0 0
/ua/calling/region/7121500000 1 42440 0 0
/ua/calling/master/666680 1 10738 0 0
/ua/calling/master/380 1 15419 0 0
/ua/calling/master/666756 1 10801 0 0
/ua/calling/master/666745 5 59215 0 0
/ua/calling/region/6310100000 16 555232 0 0
/ua/calling/master/279 3 31786 0 0
/ua/calling/region/6320200000 2 64316 0 0
/assets/lib/elfinder/php/connector.php 146 7600585 0 0
/ua/calling/region/4423800000 1 11640 0 0
/ua/calling/master/402 3 47176 0 0
/ua/calling/master/959 1 10579 0 0
/ua/calling/region/6825000000 1 16779 0 0
/ua/ 197 1420851 45 3
/ua/calling/region/6121600000 1 9080 0 0
/ua/calling/master/666739 1 10755 0 0
/ua/about 183 1298868 7 2
/ua/calling/region/6524400000 1 16843 0 0
/ua/calling/master/366 2 21872 0 0
/ua/calling/region/3210300000 3 111708 0 0
/ua/calling/region/7110400000 2 69450 0 0
/ua/calling/master/666740 1 11038 0 0
/ua/calling/region/2321200000 2 59208 0 0
/ua/calling/region/5922000000 1 16755 0 0
/ua/calling/region/3224900000 7 278740 0 0
/ua/calling/master/142 2 28460 0 0
/ua/calling/region/7125100000 1 42412 0 0
/ua/calling/master/371 1 10752 0 0
/ua/calling/master/396 1 14224 0 0
/ua/calling/region/5323800000 4 77192 0 0
/ua/calling/master/40 1 11057 0 0
/ua/browserconfig.xml 1 5191 1 1
END_SIDER
